{
	"npc_follow": [{
		"impact_ambulation": "This section relates to your ability to walk about from place to place.",
		"impact_manipulation": "This section relates to your ability to coordinate your hand movements. ",
		"impact_speech": "This section relates to your speech.",
		"impact_swallowing": "This section relates to your ability to swallow.",
		"impact_eye_movement": "This section relates to your eye movements. ",
		"impact_seizure": "This section relates to seizures.",
		"impact_cognitive_impaired": "Do you think your cognitive abilities are impaired?",
		"impact_family_disappointed": "Because of my illness, I am disappointed in my ability to keep up with family responsibilities",
		"impact_family_give_up": "Our family gives up things because of this illness.",
		"impact_family_worry_future": "Because of my illness, I worry about what will happen in the future.",
		"impact_family_closer_family": "Because of what we have shared we are a closer family.",
		"impact_wider_self_miss_career": "Over the past 12 months, did you miss any time from your job or your school due to your illness?",
		"impact_wider_family_miss_career": "Over the past 12 months, if you have a carer, did they miss any time from their job or their school (i.e. college or university) due to your illness",
		"impact_wider_emergency": "How many times, during the past 12 months, did you visit the hospital in an emergency because of issues relating to your illness",
		"impact_wider_appointment": "During the past 12 months, how many appointments have you had with a doctor (both specialist and family doctors) regarding your illness"
	}],
	"npcA_follow": [{
		"impact_ambulation": "This section relates to the person's ability to walk about from place to place.",
		"impact_manipulation": "This section relates to the person's ability to coordinate their movements.",
		"impact_speech": "This section relates to the person's speech.",
		"impact_swallowing": "This section relates to the person's ability to swallow.",
		"impact_eye_movement": "This section relates to the person's eye movements.",
		"impact_seizure": "This section relates to seizures. ",
		"impact_cognitive_impaired": "Do you think his/her cognitive abilities are impaired?",
		"impact_family_disappointed": "Because of this illness, I don't have much time left over for other family members after caring for him/her",
		"impact_family_give_up": "Our family gives up things because of their illness",
		"impact_family_worry_future": "Because of their illness, I worry about what will happen in the future",
		"impact_family_closer_family": "Because of what we have shared we are a closer family",
		"impact_wider_self_miss_career": "Over the past 12 months, did he/she miss any time from his/her job or his/her school due to their illness",
		"impact_wider_family_miss_career": "Over the past 12 months, did you miss any time from your job or your school (i.e. college or university) due to their illness",
		"impact_wider_emergency": "How many times, during the past 12 months, did he/she visit the hospital in an emergency because of issues relating to your illness",
		"impact_wider_appointment": "During the past 12 months, how many appointments has he/she had with a doctor (both specialist and family doctors) regarding your illness"
	}],
	"npb_follow": [{
		"symptom_bone": "How often do you experience bone pain",
		"symptom_abdominal": "How often do you experience abdominal pain",
		"symptom_pain": "Please rate the impact that Pain has on your day to day life",
		"symptom_breathlessness_rate": "When do you typically experience shortness of breath",
		"symptom_breathlessness_impact": "Please rate the impact that Breathlessness has on your day to day life",
		"symptom_bleeding_rate": "How often do you experience nosebleeds, bleeding gums, or easy bruising",
		"symptom_bleeding_impact": "Please rate the impact that Bleeding has on your day to day life",
		"symptom_fatigue_rate": "In the past 7 days, how often did you have to limit your activity because you were tired",
		"symptom_fatigue_impact": "Please rate the impact that Fatigue has on your day to day life",
		"symptom_enlarge_organ": "Are your organs (liver / spleen) enlarged",
		"symptom_enlarge_organ_impact": "Please rate the impact that enlarged organs (liver / spleen) has on your day to day life",
		"symptom_slow_growth": "Do you experience, or have you in the past experienced, slow growth",
		"symptom_slow_growth_impact": "Please rate the impact that Slow Growth has, or has had, on your day to day life",
		"symptom_infection": "In the last 6 months, how many infections have you had",
		"symptom_fracture": "How many bone fractures have you had, in total",
		"symptom_cognition": "Do you think your cognitive abilities are impaired?",
		"impact_family_disappointed": "Because of my illness, I am disappointed in my ability to keep up with family responsibilities",
		"impact_family_give_up": "Our family gives up things because of this illness",
		"impact_family_worry_future": "Because of my illness, I worry about what will happen in the future",
		"impact_family_closer": "Because of what we have shared we are a closer family",
		"impact_wider_self_miss_career": "Over the past 12 months, did you miss any time from your job or your school due to your illness?",
		"impact_wider_carer_miss_career": "Over the past 12 months, if you have a carer, did they miss any time from their job or their school (i.e. college or university) due to your illness",
		"impact_wider_emergency": "How many times, during the past 12 months, did you visit the hospital in an emergency because of issues relating to your illness",
		"impact_wider_appointment": "During the past 12 months, how many appointments have you had with a doctor (both specialist and family doctors) regarding your illness"
	}],
	"npbA_follow": [{
		"symptom_bone": "How often does he/she experience bone pain",
		"symptom_abdominal": "How often does he/she experience abdominal pain",
		"symptom_pain": "Please rate the impact that Pain has on his / her day to day life",
		"symptom_breathlessness_rate": "When does he / she typically experience shortness of breath",
		"symptom_breathlessness_impact": "Please rate the impact that Breathlessness has on his / her day to day life",
		"symptom_bleeding_rate": "How often does he / she experience nosebleeds, bleeding gums, or easy bruising",
		"symptom_bleeding_impact": "Please rate the impact that Bleeding has on his / her day to day life",
		"symptom_fatigue_rate": "In the past 7 days, how often did they have to limit their activity because they were tired",
		"symptom_fatigue_impact": "Please rate the impact that Fatigue has on his / her day to day life?",
		"symptom_enlarge_organ": "Are their organs (liver / spleen) enlarged",
		"symptom_enlarge_organ_impact": "Please rate the impact that enlarged organs (liver / spleen) has on their day to day life",
		"symptom_slow_growth": "Do they experience, or have they in the past experienced, slow growth",
		"symptom_slow_growth_impact": "Please rate the impact that Slow Growth has, or has had, on their day to day life",
		"symptom_infection": "In the last 6 months, how many infections has he / she had",
		"symptom_fracture": "How many bone fractures has he / she had, in total?",
		"symptom_cognition": "Do you think your cognitive abilities are impaired?",
		"impact_family_disappointed": "Because of this illness, I don't have much time left over for other family members after caring for him/her",
		"impact_family_give_up": "Our family gives up things because of their illness",
		"impact_family_worry_future": "Because of their illness, I worry about what will happen in the future",
		"impact_family_closer": "Because of what we have shared we are a closer family",
		"impact_wider_self_miss_career": "Over the past 12 months, did he/she miss any time from his/her job or his/her school due to their illness",
		"impact_wider_carer_miss_career": "Over the past 12 months, did you miss any time from your job or your school (i.e. college or university) due to their illness",
		"impact_wider_emergency": "How many times, during the past 12 months, did he/she visit the hospital in an emergency because of issues relating to your illness",
		"impact_wider_appointment": "During the past 12 months, how many appointments has he/she had with a doctor (both specialist and family doctors) regarding your illness"
	}]

}