{
    "npb_question": [
                     [
                      "Never",
                      "Monthly",
                      "Weekly",
                      "Every day",
                      "All the time"
                      ],
                     [
                      "Never",
                      "Monthly",
                      "Weekly",
                      "Every day",
                      "All the time"
                      ],
                     [
                      "None at all",
                      "Very little",
                      "Some",
                      "Quite a lot",
                      "Very much"
                      ],
                     [
                      "Never",
                      "On running",
                      "On climbing stairs",
                      "On walking",
                      "At rest"
                      ],
                     [
                      "None at all",
                      "Very little",
                      "Some",
                      "Quite a lot",
                      "Very much"
                      ],
                     [
                      "Never",
                      "Monthly",
                      "Weekly",
                      "Every day",
                      "All the time"
                      ],
                     [
                      "None at all",
                      "Very little",
                      "Some",
                      "Quite a lot",
                      "Very much"
                      ],
                     [
                      "Never",
                      "Rarely",
                      "Sometimes",
                      "Often",
                      "Always"
                      ],
                     [
                      "None at all",
                      "Very little",
                      "Some",
                      "Quite a lot",
                      "Very much"
                      ],
                     [
                      "None at all",
                      "Somewhat",
                      "Very much"
                      ],
                     [
                      "None at all",
                      "Very little",
                      "Some",
                      "Quite a lot",
                      "Very much"
                      ],
                     [
                      "None at all",
                      "Somewhat",
                      "Very much"
                      ],
                     [
                      "None at all",
                      "Very little",
                      "Some",
                      "Quite a lot",
                      "Very much"
                      ],
                     [
                      "0",
                      "1-2",
                      "3-4",
                      "Over 4"
                      ],
                     [
                      "0",
                      "1-3",
                      "4-6",
                      "Over 6"
                      ],
                     [
                      "None at all",
                      "Very little",
                      "Some",
                      "Quite a lot",
                      "Very much"
                      ],
                     [
                      "Strongly Agree",
                      "Agree",
                      "Disagree",
                      "Strongly Disagree"
                      ],
                     [
                      "Strongly Agree",
                      "Agree",
                      "Disagree",
                      "Strongly Disagree"
                      ],
                     [
                      "Strongly Agree",
                      "Agree",
                      "Disagree",
                      "Strongly Disagree"
                      ],
                     [
                      "Strongly Agree",
                      "Agree",
                      "Disagree",
                      "Strongly Disagree"
                      ],
                     [
                      "No",
                      "Yes, less than 5 days",
                      "Yes, between 1 week and 1 month",
                      "Yes, more than 1 month",
                      "I have been unable to work/study due to the illness"
                      ],
                     [
                      "No",
                      "Yes, less than 5 days",
                      "Yes, between 1 week and 1 month",
                      "Yes, more than 1 month",
                      "They were unable to work/study due to my illness",
                      "They have changed their working pattern to be able to care for me, i.e. working part-time",
                      "N/A"
                      ],
                     [
                      "Never",
                      "1-3 times",
                      "4-7 times",
                      "8 times or more"
                      ],
                     [
                      "Never",
                      "1-3 times",
                      "4-7 times",
                      "8 times or more"
                      ]
                     ],
    "npc_question": [
                     [
                      "I have no problems walking about",
                      "I am clumsy",
                      "I am unsteady on my feet but can walk unaided indoors and outdoors",
                      "When Im outdoors, I need assistance to move around",
                      "I need assistance both indoors and outdoors to move around",
                      "I cannot walk at all and to get around I always use a wheelchair"
                      ],
                     [
                      "I have no problems coordinating movement",
                      "My movement can be shaky or trembling",
                      "I have some problems with coordinating movement",
                      "I have problems with coordinating movement, but can still feed myself",
                      "I cannot perform any activities independently and need help to do everything"
                      ],
                     [
                      "I have no problems with speech",
                      "My speech can be difficult to understand",
                      "My speech is very difficult to understand and really only people who know me very well can understand what I am saying",
                      "I cannot speak, but communicate in other ways"
                      ],
                     [
                      "I have no difficulty in swallowing",
                      "I chew abnormally, taking longer when chewing solid food",
                      "I sometimes have difficulty in swallowing, and may occasionally cough while eating or drinking",
                      "I have difficulty in swallowing every day, frequently coughing or choking on food or drinks",
                      "My difficulties in swallowing are so severe that I am now fed by nasogastric tube or button fed"
                      ],
                     [
                      "My eyes move normally",
                      "My eyes move slowly",
                      "I have difficulty moving my eyes to look up or down",
                      "I cannot move my eyes (up and down or left and right)"
                      ],
                     [
                      "I do not have any seizures",
                      "I have had occasional seizures but do not take any medicine for these",
                      "I have seizures but they are controlled by anti-epileptic drugs",
                      "I have seizures  despite taking more than two anti-epileptic drugs"
                      ],
                     [
                      "Not at all",
                      "A little bit",
                      "Quite a bit",
                      "Very much"
                      ],
                     [
                      "Strongly Agree",
                      "Agree",
                      "Disagree",
                      "Strongly Disagree"
                      ],
                     [
                      "Strongly Agree",
                      "Agree",
                      "Disagree",
                      "Strongly Disagree"
                      ],
                     [
                      "Strongly Agree",
                      "Agree",
                      "Disagree",
                      "Strongly Disagree"
                      ],
                     [
                      "Strongly Agree",
                      "Agree",
                      "Disagree",
                      "Strongly Disagree"
                      ],
                     [
                      "No",
                      "Yes, less than 5 days",
                      "Yes, between 1 week and 1 month",
                      "Yes, more than 1 month",
                      "I have been unable to work/study due to the illness"
                      ],
                     [
                      "No",
                      "Yes, less than 5 days",
                      "Yes, between 1 week and 1 month",
                      "Yes, more than 1 month",
                      "They were unable to work/study due to my illness",
                      "They have changed their working pattern to be able to care for me, i.e. working part-time",
                      "N/A"
                      ],
                     [
                      "Never",
                      "1-3 times",
                      "4-7 times",
                      "8 times or more"
                      ],
                     [
                      "Never",
                      "1-3 times",
                      "4-7 times",
                      "8 times or more"
                      ]
                     ],
    "npc_applicant_participants": [
               [
                "He/she have no problems walking about",
                "He/she am clumsy",
                "He/she is unsteady on his/her feet but can walk unaided indoors and outdoors",
                "When he/she is unsteady on his/her feet but can walk unaided indoors and outdoors outdoors, I need assistance to move around",
                "He/She need assistance both indoors and outdoors to move around",
                "He/She cannot walk at all and to get around I always use a wheelchair"
                ],
               [
                
                "He/She have no problems coordinating movement",
                "His/Her movement can be shaky or trembling",
                "He/She have some problems with coordinating movement",
                "He/She have problems with coordinating movement, but can still feed him/herself",
                "He/She cannot perform any activities independently and need help to do everything"
                ],
               [
                
                "He/She have no problems with speech",
                "He/she is picking up words later than expected",
                "His/her speech can be difficult to understand",
                "His/her speech is very difficult to understand and really only people who know him/her very well can understand what he/she is saying",
                "He/She cannot speak, but communicate in other ways",
                "He/she cannot communicate at all",
                "Not applicable - he/she is too young to be expected to speak"
                ],
               [
                
                "He/She have no difficulty in swallowing",
                "He/She chew abnormally, taking longer when chewing solid food",
                "He/She sometimes have difficulty in swallowing, and may occasionally cough while eating or drinking",
                "He/She have difficulty in swallowing every day, frequently coughing or choking on food or drinks",
                "His/Her difficulties in swallowing are so severe that I am now fed by nasogastric tube or button fed"
                ],
               [
                
                "His/Her eyes move normally",
                "His/Her eyes move slowly",
                "He/She have difficulty moving his/her eyes to look up or down",
                "He/She cannot move his/her eyes (up and down or left and right)"
                ],
               [
                
                "He/She do not have any seizures",
                "He/She have had occasional seizures but do not take any medicine for these",
                "He/She have seizures but they are controlled by anti-epileptic drugs",
                "He/She have seizures  despite taking more than two anti-epileptic drugs"
                ],
               [
                
                "Not at all",
                "A little bit",
                "Quite a bit",
                "Very much"
                ],
               [
                
                "Strongly Agree",
                "Agree",
                "Disagree",
                "Strongly Disagree"
                ],
               [
                
                "Strongly Agree",
                "Agree",
                "Disagree",
                "Strongly Disagree"
                ],
               [
                
                "Strongly Agree",
                "Agree",
                "Disagree",
                "Strongly Disagree"
                ],
               [
                
                "Strongly Agree",
                "Agree",
                "Disagree",
                "Strongly Disagree"
                ],
               [
                
                "No",
                "Yes, less than 5 days",
                "Yes, between 1 week and 1 month",
                "Yes, more than 1 month",
                "He/She have been unable to work/study due to the illness",
                "N/A they are too young for school"
                ],
               [
                
                "No",
                "Yes, less than 5 days",
                "Yes, between 1 week and 1 month",
                "Yes, more than 1 month",
                "I have been unable to work/study due to the illness",
                "I have changed my working pattern to be able to care for my loved one, i.e. working part-time",
                ],
               [
                
                "Never",
                "1-3 times",
                "4-7 times",
                "8 times or more"
                ],
               [
                
                "Never",
                "1-3 times",
                "4-7 times",
                "8 times or more"
                ]
               ]
    
    
}